{
  "resource": "Dog Walking",
  "resource_explanation": null,
  "http_method": "GET",
  "route": "dog-walkings",
  "description": "GET - List of dog walkings",
  "explanation": null,
  "parameters": [
    {
      "required": false,
      "name": "all",
      "description": "return all types of dog walkings"
    },
    {
      "required": true,
      "name": "page",
      "description": "page"
    },
    {
      "required": true,
      "name": "per_page",
      "description": "per_page"
    }
  ],
  "response_fields": [

  ],
  "requests": [
    {
      "request_method": "GET",
      "request_path": "dog-walkings?all=true&page=1&per_page=5",
      "request_body": null,
      "request_headers": {
        "Authorization": "Bearer eyJhbGciOiJIUzI1NiJ9.eyJuYW1lIjoiQ2FtaWxhIiwicm9sZSI6InBldF9vd25lciIsInN1YiI6IjMiLCJzY3AiOiJ1c2VyIiwiYXVkIjpudWxsLCJpYXQiOjE1NzM0MzY4NTQsImV4cCI6MTU3NDA0MTY1NCwianRpIjoiMzJlNDhjMzItZDZhOC00ODM2LThmYWItOWEzNWEwMTQ1YjE0In0.rMOe0M-h2VbghuedUdGS8EvxFbpnY3-Uj2gmQPqH0cE",
        "Accept": "application/json",
        "Content-Type": "application/json",
        "Host": "example.org",
        "Cookie": ""
      },
      "request_query_parameters": {
        "all": "true",
        "page": "1",
        "per_page": "5"
      },
      "request_content_type": "application/json",
      "response_status": 200,
      "response_status_text": "OK",
      "response_body": "[\n  {\n    \"id\": 1,\n    \"duration\": 30,\n    \"latitude\": \"-23.534296\",\n    \"longitude\": \"-46.724113\",\n    \"begin_date\": \"2019-11-09T16:32:00.000Z\",\n    \"end_date\": \"2019-11-09T17:01:00.000Z\",\n    \"scheduled_date\": \"2019-11-09T16:30:00.000Z\",\n    \"price\": 40.0,\n    \"created_at\": \"2019-11-11T01:47:34.260Z\",\n    \"updated_at\": \"2019-11-11T01:47:34.260Z\",\n    \"user_id\": 1,\n    \"dog_walking_status_id\": 4,\n    \"dogs\": [\n      {\n        \"id\": 1,\n        \"name\": \"Lola\",\n        \"age\": 2,\n        \"created_at\": \"2019-11-11T01:47:33.811Z\",\n        \"updated_at\": \"2019-11-11T01:47:33.811Z\",\n        \"user_id\": 3\n      },\n      {\n        \"id\": 2,\n        \"name\": \"Duda\",\n        \"age\": 13,\n        \"created_at\": \"2019-11-11T01:47:33.822Z\",\n        \"updated_at\": \"2019-11-11T01:47:33.822Z\",\n        \"user_id\": 3\n      }\n    ],\n    \"dog_walking_status\": {\n      \"id\": 4,\n      \"name\": \"done\",\n      \"created_at\": \"2019-11-11T01:47:33.882Z\",\n      \"updated_at\": \"2019-11-11T01:47:33.882Z\"\n    }\n  },\n  {\n    \"id\": 2,\n    \"duration\": 30,\n    \"latitude\": \"-23.534296\",\n    \"longitude\": \"-46.724113\",\n    \"begin_date\": \"2019-11-07T16:32:00.000Z\",\n    \"end_date\": \"2019-11-07T17:01:00.000Z\",\n    \"scheduled_date\": \"2019-11-07T16:30:00.000Z\",\n    \"price\": 25.0,\n    \"created_at\": \"2019-11-11T01:47:34.284Z\",\n    \"updated_at\": \"2019-11-11T01:47:34.284Z\",\n    \"user_id\": 1,\n    \"dog_walking_status_id\": 4,\n    \"dogs\": [\n      {\n        \"id\": 1,\n        \"name\": \"Lola\",\n        \"age\": 2,\n        \"created_at\": \"2019-11-11T01:47:33.811Z\",\n        \"updated_at\": \"2019-11-11T01:47:33.811Z\",\n        \"user_id\": 3\n      }\n    ],\n    \"dog_walking_status\": {\n      \"id\": 4,\n      \"name\": \"done\",\n      \"created_at\": \"2019-11-11T01:47:33.882Z\",\n      \"updated_at\": \"2019-11-11T01:47:33.882Z\"\n    }\n  },\n  {\n    \"id\": 3,\n    \"duration\": 60,\n    \"latitude\": \"-23.558529\",\n    \"longitude\": \"-46.692096\",\n    \"begin_date\": \"2019-11-08T12:32:00.000Z\",\n    \"end_date\": \"2019-11-08T13:33:00.000Z\",\n    \"scheduled_date\": \"2019-11-08T12:30:00.000Z\",\n    \"price\": 55.0,\n    \"created_at\": \"2019-11-11T01:47:34.298Z\",\n    \"updated_at\": \"2019-11-11T01:47:34.298Z\",\n    \"user_id\": 2,\n    \"dog_walking_status_id\": 4,\n    \"dogs\": [\n      {\n        \"id\": 3,\n        \"name\": \"Cookie\",\n        \"age\": 4,\n        \"created_at\": \"2019-11-11T01:47:33.828Z\",\n        \"updated_at\": \"2019-11-11T01:47:33.828Z\",\n        \"user_id\": 4\n      }\n    ],\n    \"dog_walking_status\": {\n      \"id\": 4,\n      \"name\": \"done\",\n      \"created_at\": \"2019-11-11T01:47:33.882Z\",\n      \"updated_at\": \"2019-11-11T01:47:33.882Z\"\n    }\n  },\n  {\n    \"id\": 4,\n    \"duration\": 30,\n    \"latitude\": \"-23.558529\",\n    \"longitude\": \"-46.692096\",\n    \"begin_date\": null,\n    \"end_date\": null,\n    \"scheduled_date\": \"2019-11-12T12:30:00.000Z\",\n    \"price\": 25.0,\n    \"created_at\": \"2019-11-11T01:47:34.313Z\",\n    \"updated_at\": \"2019-11-11T01:47:34.313Z\",\n    \"user_id\": 2,\n    \"dog_walking_status_id\": 2,\n    \"dogs\": [\n      {\n        \"id\": 3,\n        \"name\": \"Cookie\",\n        \"age\": 4,\n        \"created_at\": \"2019-11-11T01:47:33.828Z\",\n        \"updated_at\": \"2019-11-11T01:47:33.828Z\",\n        \"user_id\": 4\n      }\n    ],\n    \"dog_walking_status\": {\n      \"id\": 2,\n      \"name\": \"scheduled\",\n      \"created_at\": \"2019-11-11T01:47:33.868Z\",\n      \"updated_at\": \"2019-11-11T01:47:33.868Z\"\n    }\n  },\n  {\n    \"id\": 5,\n    \"duration\": 60,\n    \"latitude\": \"-23.534296\",\n    \"longitude\": \"-46.724113\",\n    \"begin_date\": null,\n    \"end_date\": null,\n    \"scheduled_date\": \"2019-11-13T11:00:00.000Z\",\n    \"price\": 55.0,\n    \"created_at\": \"2019-11-11T01:47:34.334Z\",\n    \"updated_at\": \"2019-11-11T01:47:34.334Z\",\n    \"user_id\": 2,\n    \"dog_walking_status_id\": 2,\n    \"dogs\": [\n      {\n        \"id\": 1,\n        \"name\": \"Lola\",\n        \"age\": 2,\n        \"created_at\": \"2019-11-11T01:47:33.811Z\",\n        \"updated_at\": \"2019-11-11T01:47:33.811Z\",\n        \"user_id\": 3\n      },\n      {\n        \"id\": 2,\n        \"name\": \"Duda\",\n        \"age\": 13,\n        \"created_at\": \"2019-11-11T01:47:33.822Z\",\n        \"updated_at\": \"2019-11-11T01:47:33.822Z\",\n        \"user_id\": 3\n      }\n    ],\n    \"dog_walking_status\": {\n      \"id\": 2,\n      \"name\": \"scheduled\",\n      \"created_at\": \"2019-11-11T01:47:33.868Z\",\n      \"updated_at\": \"2019-11-11T01:47:33.868Z\"\n    }\n  }\n]",
      "response_headers": {
        "Link": "<http://example.org/dog-walkings?all=true&page=4&per_page=5>; rel=\"last\", <http://example.org/dog-walkings?all=true&page=2&per_page=5>; rel=\"next\"",
        "Per-Page": "5",
        "Total": "18",
        "Content-Type": "application/json; charset=utf-8",
        "ETag": "W/\"64c98d4e6497d35d489be6286b0a0e15\"",
        "Cache-Control": "max-age=0, private, must-revalidate",
        "X-Request-Id": "5b7c2b53-fa68-4c95-bbcc-828b453329ca",
        "X-Runtime": "0.099238",
        "Vary": "Origin",
        "Content-Length": "3080"
      },
      "response_content_type": "application/json; charset=utf-8",
      "curl": null
    }
  ]
}